current directory: /var/www/html/digitalworld/path/ruby/2.6.0/gems/bcrypt-3.1.13/ext/mri
/root/.rbenv/versions/2.6.2/bin/ruby -I /root/.rbenv/versions/2.6.2/lib/ruby/site_ruby/2.6.0 -r ./siteconf20190629-27183-5dzppn.rb extconf.rb
creating Makefile

current directory: /var/www/html/digitalworld/path/ruby/2.6.0/gems/bcrypt-3.1.13/ext/mri
make "DESTDIR=" clean

current directory: /var/www/html/digitalworld/path/ruby/2.6.0/gems/bcrypt-3.1.13/ext/mri
make "DESTDIR="
compiling bcrypt_ext.c
compiling crypt_blowfish.c
gcc  -D__SKIP_GNU -I/root/.rbenv/versions/2.6.2/include     -c -o x86.o x86.S
compiling crypt_gensalt.c
compiling wrapper.c
linking shared-object bcrypt_ext.so

current directory: /var/www/html/digitalworld/path/ruby/2.6.0/gems/bcrypt-3.1.13/ext/mri
make "DESTDIR=" install
/usr/bin/install -c -m 0755 bcrypt_ext.so ./.gem.20190629-27183-rfpct4
