{
  "type": "service_account",
  "project_id": "warwickshare-225109",
  "private_key_id": "50d0c5f0999603aceb18722f4689ab02b21256b6",
  "private_key": "-----BEGIN PRIVATE KEY-----\nMIIEvgIBADANBgkqhkiG9w0BAQEFAASCBKgwggSkAgEAAoIBAQDVXHvPX+Qo+Qoq\nmdIetW/TpJmMSaOGuaazyb7hm8ooSFPPP1AeiG4vRLsqA1XW5ad3wgmoOjjV8RmO\nJI4s6qc0x6mIgsavPOi7dQL+XMucoITPH8lPz1KEfiwieg+rIL8CfbvBzh6df2eX\nLyGdpDAlbS+hS5yfBsiCyMgw+wPkv/7EkagBF9m30qom030futIDTcgBglXzYsnJ\n+evP1fJenTps21gRyV8hXb/1nMKe+p6XECjL/JsFv7Cwf+Lh6ShatlluWEZjH1C8\nr1e0WnmZcyE7O+kqrdUVISjDIT3Mfb04JaFs+g1SK1t36lCZJpTWhf+oNwYSeF8Q\nYT6WPqP/AgMBAAECggEAD4kgasUss98OYnO43QuRDPQbSh/CjHjQLp8uCvdxDOXX\nVGvjxZVhkIeMqU583ZzzSMEUOu+iW9GmbrcyswqTCkDPk2USWogw2hV3FlZjbRAz\nG3HREsKh24vkYs5IfclwnxnQphgAGq/ANz3zUKs35kHBChmbWekAiKVeDlL4wZsn\nKCiPCUZDNYCbJC3oO4xQJxRtNFkUGV3VPJl+GX9OYppie8xpMuw2JloGJclTxr7L\nhK5FYXuPzL9F/oSGPcYhgl4lZZ9ZZiL7jPgp5fXlnCqH/ptcZyI4fTiVLmXeMoEt\n6ihtE91pjoGtcod3g6Dol8zcR7JlXtpoMmfMBeAmQQKBgQD9d/DB9VhJgbDma+OC\nTdBoJZHLqyuNfmD/gvxBdpc22Z7726BbTO7UgScPlIl9glh5dxuYSNYozbgNRrxB\nKilbimiUTLPIkW7YT07gJZIPHn9kFdSNpxKfpC8exp84c072cBEE+7K4rHP5mSfz\nPsyxusMYBT7E92iDA+97kKj2mQKBgQDXff+S5zL78h5L8xo7HhBpQUVODXjgyeEI\nl1BZuAQoNjL5WpIOL6Qxpm1hovsnEOhoUW2xyUTZNACf4jnTzrCaXARlAnzYgkW7\nKnENAnSJRRVriu/i/37nXLeLAbV9SAyijV+K1LZo0psPPmpGcNwg3vSvK7tBQNdC\nk6IgtK1GVwKBgHnb9DAL2Ipeg8IEFLlM1+l6RoH4pVO9crzlKIoAjeqc7caAbLP4\nZMpd3X2sF/3zcL3U+btZKT0sylP3sgJSVtffzy+dQMIoyXXNi0pQRcxnCTABHtOL\ng3Sk5tKRA3OMXGY2srgGmoIWxxs0+vQDOT4pYCpoOylPGTwD5FsvzUvhAoGBANJg\nOttDBV48YGGLYwdl8WWgiDWMJ39k92G4v4Pnh39uclNHnaFl12l1bgHM6F6aPhph\nrLLNqH5YK2frpsLmXTlFLjEivZltjQANjjLCO90raZ8FE+7LuivLM5DsyS8W4Obt\nF+JkifRJ74FxULWWRwF8SOqeygAJel2P3c8KNMOfAoGBAMGKmAJ8ITYWmDYA2IBs\nfQxBQ5y2tCGD4XK3bgsTbtnmbrNkjyOQsJWV1SM5JVlLnv84kmKjF1l6t8PyR6El\nzfYZuPOrQosab/gZTHs0g1vsApgfg7/e0b1VPf1zVP1mjOWm8zugZFD7ecxEHZ3f\nqh6y7WBYHPQUFiD1lRPzqJ49\n-----END PRIVATE KEY-----\n",
  "client_email": "franta@warwickshare-225109.iam.gserviceaccount.com",
  "client_id": "109208389888688077977",
  "auth_uri": "https://accounts.google.com/o/oauth2/auth",
  "token_uri": "https://oauth2.googleapis.com/token",
  "auth_provider_x509_cert_url": "https://www.googleapis.com/oauth2/v1/certs",
  "client_x509_cert_url": "https://www.googleapis.com/robot/v1/metadata/x509/franta%40warwickshare-225109.iam.gserviceaccount.com"
}
